{"name":"Solicitud de usuarios","id":"pruebas-del-servicio-get;solicitud-de-usuarios","scenarioId":"getReqRes:Solicitud de usuarios","methodName":"Solicitud de usuarios","testSteps":[{"number":1,"description":"Given que el usuario esta en la pagina de \"https://reqres.in\"","duration":76,"startTime":"2024-05-22T18:35:22.606993900-05:00[America/Bogota]","result":"SUCCESS","precondition":false,"level":0},{"number":2,"description":"When envia una peticion de tipo Get al recurso \"/api/users?page\u003d2\"","duration":2618,"startTime":"2024-05-22T18:35:22.685015300-05:00[America/Bogota]","result":"SUCCESS","precondition":false,"level":0,"children":[{"number":3,"description":"Kath do get","duration":2347,"startTime":"2024-05-22T18:35:22.954098600-05:00[America/Bogota]","result":"SUCCESS","precondition":false,"level":1,"children":[{"number":4,"description":"Kath our get","duration":2277,"startTime":"2024-05-22T18:35:23.018127400-05:00[America/Bogota]","result":"SUCCESS","precondition":false,"level":2,"children":[{"number":5,"description":"GET https://reqres.in/api/users?page\u003d2","duration":0,"startTime":"2024-05-22T18:35:25.291352200-05:00[America/Bogota]","result":"SUCCESS","restQuery":{"method":"GET","path":"https://reqres.in/api/users?page\u003d2","content":"","contentType":"application/json","requestHeaders":"Accept\u003d*/*\r\n\t\t\t\tContent-Type\u003dapplication/json","requestCookies":"","responseHeaders":"Date: Wed, 22 May 2024 23:35:28 GMT\r\nContent-Type: application/json; charset\u003dutf-8\r\nTransfer-Encoding: chunked\r\nConnection: keep-alive\r\nReport-To: {\"group\":\"heroku-nel\",\"max_age\":3600,\"endpoints\":[{\"url\":\"https://nel.heroku.com/reports?ts\u003d1716229383\u0026sid\u003dc4c9725f-1ab0-44d8-820f-430df2718e11\u0026s\u003dKEOmxnowdqmfmp3Zzqz1fqHquMdTI0NCIz0AasqVgP0%3D\"}]}\r\nReporting-Endpoints: heroku-nel\u003dhttps://nel.heroku.com/reports?ts\u003d1716229383\u0026sid\u003dc4c9725f-1ab0-44d8-820f-430df2718e11\u0026s\u003dKEOmxnowdqmfmp3Zzqz1fqHquMdTI0NCIz0AasqVgP0%3D\r\nNel: {\"report_to\":\"heroku-nel\",\"max_age\":3600,\"success_fraction\":0.005,\"failure_fraction\":0.05,\"response_headers\":[\"Via\"]}\r\nX-Powered-By: Express\r\nAccess-Control-Allow-Origin: *\r\nEtag: W/\"406-ut0vzoCuidvyMf8arZpMpJ6ZRDw\"\r\nVia: 1.1 vegur\r\nCache-Control: max-age\u003d14400\r\nCF-Cache-Status: HIT\r\nAge: 5206\r\nVary: Accept-Encoding\r\nServer: cloudflare\r\nCF-RAY: 88809f7338e23376-MIA\r\nContent-Encoding: gzip\r","responseCookies":"\r","responseBody":"{\n    \"page\": 2,\n    \"per_page\": 6,\n    \"total\": 12,\n    \"total_pages\": 2,\n    \"data\": [\n        {\n            \"id\": 7,\n            \"email\": \"michael.lawson@reqres.in\",\n            \"first_name\": \"Michael\",\n            \"last_name\": \"Lawson\",\n            \"avatar\": \"https://reqres.in/img/faces/7-image.jpg\"\n        },\n        {\n            \"id\": 8,\n            \"email\": \"lindsay.ferguson@reqres.in\",\n            \"first_name\": \"Lindsay\",\n            \"last_name\": \"Ferguson\",\n            \"avatar\": \"https://reqres.in/img/faces/8-image.jpg\"\n        },\n        {\n            \"id\": 9,\n            \"email\": \"tobias.funke@reqres.in\",\n            \"first_name\": \"Tobias\",\n            \"last_name\": \"Funke\",\n            \"avatar\": \"https://reqres.in/img/faces/9-image.jpg\"\n        },\n        {\n            \"id\": 10,\n            \"email\": \"byron.fields@reqres.in\",\n            \"first_name\": \"Byron\",\n            \"last_name\": \"Fields\",\n            \"avatar\": \"https://reqres.in/img/faces/10-image.jpg\"\n        },\n        {\n            \"id\": 11,\n            \"email\": \"george.edwards@reqres.in\",\n            \"first_name\": \"George\",\n            \"last_name\": \"Edwards\",\n            \"avatar\": \"https://reqres.in/img/faces/11-image.jpg\"\n        },\n        {\n            \"id\": 12,\n            \"email\": \"rachel.howell@reqres.in\",\n            \"first_name\": \"Rachel\",\n            \"last_name\": \"Howell\",\n            \"avatar\": \"https://reqres.in/img/faces/12-image.jpg\"\n        }\n    ],\n    \"support\": {\n        \"url\": \"https://reqres.in/#support-heading\",\n        \"text\": \"To keep ReqRes free, contributions towards server costs are appreciated!\"\n    }\n}","statusCode":200},"precondition":false,"level":3}]}]}]},{"number":6,"description":"Then deberia obtener un codigo de respuesta 200","duration":85,"startTime":"2024-05-22T18:35:25.303354600-05:00[America/Bogota]","result":"SUCCESS","precondition":false,"level":0,"children":[{"number":7,"description":"Then el codigo de respuesta:  should be (200)","duration":3,"startTime":"2024-05-22T18:35:25.383371400-05:00[America/Bogota]","result":"SUCCESS","precondition":false,"level":1}]},{"number":8,"description":"And deberia obtener una lista con la informacion de los usuarios","duration":6,"startTime":"2024-05-22T18:35:25.389372800-05:00[America/Bogota]","result":"SUCCESS","precondition":false,"level":0,"children":[{"number":9,"description":"Then el cuerpo de respuesta:  should be a string containing \u0027Ferguson\u0027","duration":1,"startTime":"2024-05-22T18:35:25.393373200-05:00[America/Bogota]","result":"SUCCESS","precondition":false,"level":1}]}],"userStory":{"id":"getReqRes","storyName":"pruebas del servicio GET","displayName":"pruebas del servicio GET","path":"getReqRes","pathElements":[{"name":"getReqRes","description":""}],"narrative":"  yo como usuario de los servicios Reqres\n  quiero poder obtener los datos\n  para estar informado","type":"feature"},"title":"Solicitud de usuarios","description":"","tags":[{"name":"rutafeliz","type":"tag","displayName":"rutafeliz"}],"startTime":"2024-05-22T18:35:22.588989400-05:00[America/Bogota]","duration":93,"projectKey":"","isManualTestingUpToDate":false,"manual":false,"testSource":"Cucumber","actors":[{"name":"Kath","can":["call an API at https://reqres.in"]}],"order":0,"result":"SUCCESS"}